﻿bez,Name,Zielerreichungsgrad,zeq1_bez_sum,zeq2_bez_sum,zeq3_bez_sum,zeq4_bez_sum,zeq5_bez_sum,zeq6_bez_sum,zeq11_bez_sum,zeq12_bez_sum,zeq13_bez_sum,zeq14_bez_sum,zeq15_bez_sum,zeq16_bez_sum,zeq17_bez_sum,zeq21_bez_sum,zeq22_bez_sum,zeq23_bez_sum,zeq24_bez_sum,zeq25_bez_sum,zeq26_bez_sum,zeq27_bez_sum,zeq31_bez_sum,zeq32_bez_sum,zeq33_bez_sum,zeq34_bez_sum,zeq35_bez_sum,zeq36_bez_sum,zeq37_bez_sum,zeq41_bez_sum,zeq42_bez_sum,zeq43_bez_sum,zeq44_bez_sum,zeq45_bez_sum,zeq46_bez_sum,zeq47_bez_sum,zeq51_bez_sum,zeq52_bez_sum,zeq53_bez_sum,zeq54_bez_sum,zeq55_bez_sum,zeq56_bez_sum,zeq57_bez_sum,zeq61_bez_sum,zeq62_bez_sum,zeq63_bez_sum,zeq64_bez_sum,zeq65_bez_sum,zeq66_bez_sum,zeq67_bez_sum,a1pro,a2pro,a3pro,a4pro,a5pro,a6pro
101,Eisenstadt (Stadt),68.6%,0.0%,0.0%,0.0%,0.0%,68.6%,0.0%,0.0%,0.0%,0.0%,0.0%,0.0%,0.0%,0.0%,0.0%,0.0%,0.0%,0.0%,0.0%,0.0%,0.0%,0.0%,0.0%,0.0%,0.0%,0.0%,0.0%,0.0%,0.0%,0.0%,0.0%,0.0%,0.0%,0.0%,0.0%,66.7%,100.0%,68.6%,62.9%,62.8%,44.2%,67.1%,0.0%,0.0%,0.0%,0.0%,0.0%,0.0%,0.0%,0.0%,0.0%,0.0%,0.0%,100.0%,0.0%
102,Rust (Stadt),0.0%,0.0%,0.0%,0.0%,0.0%,0.0%,0.0%,0.0%,0.0%,0.0%,0.0%,0.0%,0.0%,0.0%,0.0%,0.0%,0.0%,0.0%,0.0%,0.0%,0.0%,0.0%,0.0%,0.0%,0.0%,0.0%,0.0%,0.0%,0.0%,0.0%,0.0%,0.0%,0.0%,0.0%,0.0%,0.0%,0.0%,0.0%,0.0%,0.0%,0.0%,0.0%,0.0%,0.0%,0.0%,0.0%,0.0%,0.0%,0.0%,0.0%,0.0%,0.0%,100.0%,0.0%,0.0%
103,Eisenstadt-Umgebung,53.6%,60.9%,43.3%,52.1%,0.0%,0.0%,0.0%,95.6%,59.0%,70.0%,43.8%,28.0%,54.4%,54.4%,85.7%,83.3%,42.7%,36.5%,0.0%,0.0%,0.0%,82.8%,54.5%,71.6%,33.8%,0.0%,27.4%,71.5%,0.0%,0.0%,0.0%,0.0%,0.0%,0.0%,0.0%,0.0%,0.0%,0.0%,0.0%,0.0%,0.0%,0.0%,0.0%,0.0%,0.0%,0.0%,0.0%,0.0%,0.0%,28.1%,11.0%,60.9%,0.0%,0.0%,0.0%
104,Güssing,57.7%,53.1%,0.0%,0.0%,64.7%,0.0%,0.0%,64.5%,52.9%,54.2%,79.5%,4.3%,47.6%,30.6%,0.0%,0.0%,0.0%,0.0%,0.0%,0.0%,0.0%,0.0%,0.0%,0.0%,0.0%,0.0%,0.0%,0.0%,100.0%,18.8%,100.0%,67.5%,100.0%,34.1%,0.0%,0.0%,0.0%,0.0%,0.0%,0.0%,0.0%,0.0%,0.0%,0.0%,0.0%,0.0%,0.0%,0.0%,0.0%,60.5%,0.0%,0.0%,39.5%,0.0%,0.0%
105,Jennersdorf,70.3%,38.0%,58.0%,0.0%,84.9%,0.0%,0.0%,38.5%,100.0%,53.3%,36.5%,0.0%,0.0%,0.0%,45.1%,33.0%,26.7%,100.0%,0.0%,100.0%,100.0%,0.0%,0.0%,0.0%,0.0%,0.0%,0.0%,0.0%,78.6%,100.0%,88.0%,75.0%,72.0%,88.0%,100.0%,0.0%,0.0%,0.0%,0.0%,0.0%,0.0%,0.0%,0.0%,0.0%,0.0%,0.0%,0.0%,0.0%,0.0%,17.4%,24.0%,0.0%,58.6%,0.0%,0.0%
106,Mattersburg,43.2%,43.3%,65.8%,43.1%,22.6%,0.0%,0.0%,79.1%,20.4%,60.2%,41.5%,0.0%,0.0%,71.1%,100.0%,40.3%,71.8%,60.3%,68.4%,68.4%,32.8%,72.1%,43.9%,58.7%,35.6%,0.0%,26.8%,35.1%,36.9%,46.3%,27.3%,17.5%,0.0%,6.8%,0.0%,0.0%,0.0%,0.0%,0.0%,0.0%,0.0%,0.0%,0.0%,0.0%,0.0%,0.0%,0.0%,0.0%,0.0%,13.5%,25.7%,32.5%,28.3%,0.0%,0.0%
107,Neusiedl am See,43.5%,53.5%,53.3%,34.8%,0.0%,0.0%,0.0%,81.1%,50.5%,63.3%,53.5%,34.2%,30.6%,30.6%,71.2%,75.4%,90.4%,34.4%,36.5%,36.5%,0.0%,70.0%,18.4%,38.3%,35.0%,0.0%,11.8%,40.8%,0.0%,0.0%,0.0%,0.0%,0.0%,0.0%,0.0%,0.0%,0.0%,0.0%,0.0%,0.0%,0.0%,0.0%,0.0%,0.0%,0.0%,0.0%,0.0%,0.0%,0.0%,18.2%,28.9%,52.9%,0.0%,0.0%,0.0%
108,Oberpullendorf,63.6%,61.7%,70.4%,62.6%,51.7%,0.0%,0.0%,59.5%,64.0%,72.8%,70.2%,37.8%,50.8%,63.9%,90.8%,81.8%,82.9%,52.8%,22.9%,77.1%,69.5%,89.1%,62.2%,100.0%,41.7%,0.0%,21.7%,100.0%,71.6%,28.8%,100.0%,21.3%,93.7%,44.2%,0.0%,0.0%,0.0%,0.0%,0.0%,0.0%,0.0%,0.0%,0.0%,0.0%,0.0%,0.0%,0.0%,0.0%,0.0%,26.4%,39.7%,16.6%,17.3%,0.0%,0.0%
109,Oberwart,66.9%,86.7%,52.2%,44.3%,78.1%,0.0%,0.0%,100.0%,87.6%,78.4%,91.9%,43.4%,100.0%,90.3%,85.9%,45.2%,48.8%,54.2%,0.0%,79.4%,21.6%,86.6%,52.7%,77.9%,20.8%,0.0%,32.0%,0.0%,67.2%,100.0%,100.0%,100.0%,0.0%,46.2%,100.0%,0.0%,0.0%,0.0%,0.0%,0.0%,0.0%,0.0%,0.0%,0.0%,0.0%,0.0%,0.0%,0.0%,0.0%,21.3%,32.5%,13.6%,32.6%,0.0%,0.0%
201,Klagenfurt (Stadt),62.4%,0.0%,0.0%,0.0%,0.0%,0.0%,62.4%,0.0%,0.0%,0.0%,0.0%,0.0%,0.0%,0.0%,0.0%,0.0%,0.0%,0.0%,0.0%,0.0%,0.0%,0.0%,0.0%,0.0%,0.0%,0.0%,0.0%,0.0%,0.0%,0.0%,0.0%,0.0%,0.0%,0.0%,0.0%,0.0%,0.0%,0.0%,0.0%,0.0%,0.0%,0.0%,100.0%,39.2%,22.5%,100.0%,19.6%,12.4%,100.0%,0.0%,0.0%,0.0%,0.0%,0.0%,100.0%
202,Villach (Stadt),70.5%,0.0%,0.0%,0.0%,0.0%,0.0%,70.5%,0.0%,0.0%,0.0%,0.0%,0.0%,0.0%,0.0%,0.0%,0.0%,0.0%,0.0%,0.0%,0.0%,0.0%,0.0%,0.0%,0.0%,0.0%,0.0%,0.0%,0.0%,0.0%,0.0%,0.0%,0.0%,0.0%,0.0%,0.0%,0.0%,0.0%,0.0%,0.0%,0.0%,0.0%,0.0%,66.9%,60.1%,61.0%,94.1%,76.6%,24.7%,100.0%,0.0%,0.0%,0.0%,0.0%,0.0%,100.0%
203,Hermagor,52.1%,29.2%,0.0%,28.2%,69.9%,0.0%,0.0%,30.0%,13.8%,55.5%,64.1%,0.0%,0.0%,0.0%,0.0%,0.0%,0.0%,0.0%,0.0%,0.0%,0.0%,38.2%,10.4%,90.5%,20.8%,0.0%,12.6%,0.0%,89.3%,70.0%,68.7%,100.0%,0.0%,49.1%,63.7%,0.0%,0.0%,0.0%,0.0%,0.0%,0.0%,0.0%,0.0%,0.0%,0.0%,0.0%,0.0%,0.0%,0.0%,21.1%,0.0%,22.2%,56.8%,0.0%,0.0%
204,Klagenfurt Land,57.1%,31.5%,0.0%,0.0%,61.0%,0.0%,0.0%,34.5%,0.0%,30.7%,100.0%,0.0%,0.0%,0.0%,0.0%,0.0%,0.0%,0.0%,0.0%,0.0%,0.0%,0.0%,0.0%,0.0%,0.0%,0.0%,0.0%,0.0%,82.5%,37.3%,97.6%,88.8%,41.8%,23.2%,0.0%,0.0%,0.0%,0.0%,0.0%,0.0%,0.0%,0.0%,0.0%,0.0%,0.0%,0.0%,0.0%,0.0%,0.0%,13.0%,0.0%,0.0%,87.0%,0.0%,0.0%
205,Sankt Veit an der Glan,56.2%,68.0%,58.7%,0.0%,0.0%,49.6%,0.0%,87.2%,33.1%,84.9%,75.9%,57.7%,57.7%,61.4%,97.0%,17.4%,68.1%,84.4%,30.9%,0.0%,64.7%,0.0%,0.0%,0.0%,0.0%,0.0%,0.0%,0.0%,0.0%,0.0%,0.0%,0.0%,0.0%,0.0%,0.0%,41.3%,92.2%,40.0%,42.8%,0.0%,29.4%,100.0%,0.0%,0.0%,0.0%,0.0%,0.0%,0.0%,0.0%,23.9%,24.7%,0.0%,0.0%,51.4%,0.0%
206,Spittal an der Drau,69.4%,58.0%,73.5%,93.4%,48.0%,77.9%,0.0%,89.1%,29.9%,74.5%,54.8%,35.5%,35.5%,65.1%,97.0%,66.2%,78.8%,71.6%,47.6%,66.4%,66.4%,100.0%,81.2%,100.0%,90.6%,100.0%,80.6%,100.0%,54.0%,59.6%,65.1%,51.8%,24.6%,32.1%,24.7%,80.1%,100.0%,69.0%,100.0%,77.6%,57.7%,29.9%,0.0%,0.0%,0.0%,0.0%,0.0%,0.0%,0.0%,7.1%,24.1%,10.8%,25.6%,32.4%,0.0%
207,Villach Land,34.7%,0.0%,0.0%,64.6%,27.9%,0.0%,0.0%,0.0%,0.0%,0.0%,0.0%,0.0%,0.0%,0.0%,0.0%,0.0%,0.0%,0.0%,0.0%,0.0%,0.0%,100.0%,99.7%,56.6%,44.8%,0.0%,42.4%,80.0%,57.5%,28.0%,44.9%,24.4%,0.0%,5.8%,0.0%,0.0%,0.0%,0.0%,0.0%,0.0%,0.0%,0.0%,0.0%,0.0%,0.0%,0.0%,0.0%,0.0%,0.0%,0.0%,0.0%,18.6%,81.4%,0.0%,0.0%
208,Völkermarkt,76.3%,0.0%,0.0%,74.6%,0.0%,76.8%,0.0%,0.0%,0.0%,0.0%,0.0%,0.0%,0.0%,0.0%,0.0%,0.0%,0.0%,0.0%,0.0%,0.0%,0.0%,85.4%,100.0%,80.1%,81.3%,0.0%,42.9%,100.0%,0.0%,0.0%,0.0%,0.0%,0.0%,0.0%,0.0%,87.3%,75.3%,100.0%,60.7%,54.9%,54.1%,100.0%,0.0%,0.0%,0.0%,0.0%,0.0%,0.0%,0.0%,0.0%,0.0%,24.2%,0.0%,75.8%,0.0%
209,Wolfsberg,58.2%,0.0%,0.0%,47.2%,0.0%,59.6%,0.0%,0.0%,0.0%,0.0%,0.0%,0.0%,0.0%,0.0%,0.0%,0.0%,0.0%,0.0%,0.0%,0.0%,0.0%,46.4%,41.0%,20.5%,100.0%,0.0%,41.7%,45.5%,0.0%,0.0%,0.0%,0.0%,0.0%,0.0%,0.0%,47.3%,80.4%,57.0%,93.1%,34.2%,37.5%,37.3%,0.0%,0.0%,0.0%,0.0%,0.0%,0.0%,0.0%,0.0%,0.0%,11.1%,0.0%,88.9%,0.0%
210,Feldkirchen,47.0%,0.0%,98.0%,61.6%,0.0%,36.4%,0.0%,0.0%,0.0%,0.0%,0.0%,0.0%,0.0%,0.0%,100.0%,86.6%,100.0%,100.0%,100.0%,100.0%,100.0%,87.0%,100.0%,57.4%,77.1%,0.0%,24.3%,27.3%,0.0%,0.0%,0.0%,0.0%,0.0%,0.0%,0.0%,35.5%,12.5%,23.9%,100.0%,0.0%,38.7%,0.0%,0.0%,0.0%,0.0%,0.0%,0.0%,0.0%,0.0%,0.0%,9.5%,19.0%,0.0%,71.5%,0.0%
301,Krems an der Donau (Stadt),62.2%,0.0%,0.0%,0.0%,0.0%,62.2%,0.0%,0.0%,0.0%,0.0%,0.0%,0.0%,0.0%,0.0%,0.0%,0.0%,0.0%,0.0%,0.0%,0.0%,0.0%,0.0%,0.0%,0.0%,0.0%,0.0%,0.0%,0.0%,0.0%,0.0%,0.0%,0.0%,0.0%,0.0%,0.0%,78.3%,63.6%,51.4%,90.6%,60.9%,50.8%,0.0%,0.0%,0.0%,0.0%,0.0%,0.0%,0.0%,0.0%,0.0%,0.0%,0.0%,0.0%,100.0%,0.0%
302,Sankt Pölten (Stadt),70.6%,0.0%,0.0%,0.0%,0.0%,0.0%,70.6%,0.0%,0.0%,0.0%,0.0%,0.0%,0.0%,0.0%,0.0%,0.0%,0.0%,0.0%,0.0%,0.0%,0.0%,0.0%,0.0%,0.0%,0.0%,0.0%,0.0%,0.0%,0.0%,0.0%,0.0%,0.0%,0.0%,0.0%,0.0%,0.0%,0.0%,0.0%,0.0%,0.0%,0.0%,0.0%,79.9%,100.0%,54.5%,100.0%,44.3%,30.7%,40.0%,0.0%,0.0%,0.0%,0.0%,0.0%,100.0%
303,Waidhofen an der Ybbs (Stadt),56.1%,0.0%,0.0%,0.0%,0.0%,56.1%,0.0%,0.0%,0.0%,0.0%,0.0%,0.0%,0.0%,0.0%,0.0%,0.0%,0.0%,0.0%,0.0%,0.0%,0.0%,0.0%,0.0%,0.0%,0.0%,0.0%,0.0%,0.0%,0.0%,0.0%,0.0%,0.0%,0.0%,0.0%,0.0%,41.8%,65.5%,29.3%,57.5%,100.0%,19.7%,100.0%,0.0%,0.0%,0.0%,0.0%,0.0%,0.0%,0.0%,0.0%,0.0%,0.0%,0.0%,100.0%,0.0%
304,Wiener Neustadt (Stadt),57.7%,0.0%,0.0%,0.0%,0.0%,57.7%,0.0%,0.0%,0.0%,0.0%,0.0%,0.0%,0.0%,0.0%,0.0%,0.0%,0.0%,0.0%,0.0%,0.0%,0.0%,0.0%,0.0%,0.0%,0.0%,0.0%,0.0%,0.0%,0.0%,0.0%,0.0%,0.0%,0.0%,0.0%,0.0%,41.4%,67.0%,36.1%,81.3%,54.0%,23.2%,100.0%,0.0%,0.0%,0.0%,0.0%,0.0%,0.0%,0.0%,0.0%,0.0%,0.0%,0.0%,100.0%,0.0%
305,Amstetten,64.9%,0.0%,67.0%,64.6%,62.8%,66.0%,0.0%,0.0%,0.0%,0.0%,0.0%,0.0%,0.0%,0.0%,89.2%,68.5%,68.6%,61.1%,18.7%,62.5%,82.9%,72.1%,74.0%,64.6%,74.9%,37.6%,45.3%,61.4%,63.8%,87.9%,73.6%,57.5%,61.6%,38.1%,43.4%,48.9%,100.0%,42.1%,73.6%,50.8%,51.2%,100.0%,0.0%,0.0%,0.0%,0.0%,0.0%,0.0%,0.0%,0.0%,12.7%,31.6%,25.5%,30.2%,0.0%
306,Baden,58.5%,0.0%,71.6%,40.1%,59.2%,59.5%,0.0%,0.0%,0.0%,0.0%,0.0%,0.0%,0.0%,0.0%,100.0%,24.4%,100.0%,45.8%,100.0%,100.0%,37.5%,65.9%,19.5%,62.5%,60.4%,0.0%,25.5%,0.0%,50.5%,84.2%,61.0%,72.9%,54.3%,28.2%,44.8%,61.3%,65.8%,49.5%,76.4%,36.9%,49.0%,60.8%,0.0%,0.0%,0.0%,0.0%,0.0%,0.0%,0.0%,0.0%,2.1%,6.1%,20.7%,71.1%,0.0%
307,Bruck an der Leitha,65.6%,64.7%,62.9%,58.9%,71.3%,63.1%,0.0%,76.3%,53.6%,72.0%,53.1%,0.0%,100.0%,100.0%,88.4%,52.4%,79.3%,69.7%,0.0%,68.8%,46.5%,76.8%,52.9%,83.9%,68.3%,27.8%,37.6%,27.8%,73.0%,77.3%,73.3%,82.0%,63.8%,43.1%,70.1%,95.3%,15.7%,100.0%,94.1%,16.7%,61.6%,0.0%,0.0%,0.0%,0.0%,0.0%,0.0%,0.0%,0.0%,1.9%,8.9%,21.1%,41.1%,27.0%,0.0%
308,Gänserndorf,58.7%,58.5%,65.4%,48.1%,59.8%,60.6%,0.0%,94.8%,42.6%,79.2%,40.0%,29.1%,50.3%,53.0%,94.9%,82.0%,81.8%,54.5%,0.0%,54.5%,54.5%,81.1%,52.2%,89.4%,27.8%,0.0%,18.7%,31.6%,68.6%,62.4%,81.4%,68.7%,36.1%,36.0%,36.0%,56.3%,93.3%,55.5%,62.2%,50.8%,47.3%,47.7%,0.0%,0.0%,0.0%,0.0%,0.0%,0.0%,0.0%,8.9%,5.9%,14.0%,36.9%,34.4%,0.0%
309,Gmünd,59.1%,68.5%,0.0%,60.8%,51.1%,0.0%,0.0%,97.3%,68.3%,78.8%,70.3%,17.3%,31.7%,80.4%,0.0%,0.0%,0.0%,0.0%,0.0%,0.0%,0.0%,87.4%,95.8%,83.2%,67.6%,0.0%,29.4%,0.0%,52.3%,63.6%,65.8%,65.7%,0.0%,31.1%,50.2%,0.0%,0.0%,0.0%,0.0%,0.0%,0.0%,0.0%,0.0%,0.0%,0.0%,0.0%,0.0%,0.0%,0.0%,31.4%,0.0%,26.2%,42.3%,0.0%,0.0%
310,Hollabrunn,64.0%,89.9%,67.6%,100.0%,0.0%,45.4%,0.0%,100.0%,99.4%,100.0%,100.0%,100.0%,0.0%,100.0%,79.2%,60.4%,84.2%,54.8%,48.1%,71.3%,71.9%,100.0%,100.0%,100.0%,100.0%,100.0%,100.0%,100.0%,0.0%,0.0%,0.0%,0.0%,0.0%,0.0%,0.0%,36.7%,91.3%,24.2%,47.9%,0.0%,11.8%,100.0%,0.0%,0.0%,0.0%,0.0%,0.0%,0.0%,0.0%,4.9%,32.4%,16.9%,0.0%,45.8%,0.0%
311,Horn,60.8%,35.8%,83.5%,65.4%,54.4%,0.0%,0.0%,67.2%,58.0%,58.5%,24.6%,0.0%,0.0%,0.0%,100.0%,87.8%,79.9%,94.7%,0.0%,100.0%,94.1%,86.4%,54.3%,100.0%,62.6%,50.3%,23.3%,50.3%,65.6%,76.3%,90.3%,42.5%,45.4%,32.8%,0.0%,0.0%,0.0%,0.0%,0.0%,0.0%,0.0%,0.0%,0.0%,0.0%,0.0%,0.0%,0.0%,0.0%,0.0%,13.1%,16.5%,36.6%,33.8%,0.0%,0.0%
312,Korneuburg,54.2%,49.5%,59.8%,57.0%,22.1%,59.1%,0.0%,83.9%,68.1%,66.7%,62.5%,0.0%,0.0%,0.0%,64.1%,51.8%,64.2%,72.5%,50.2%,50.2%,50.2%,68.8%,63.2%,65.6%,56.6%,25.0%,39.0%,62.3%,24.8%,26.2%,24.3%,42.5%,0.0%,10.1%,0.0%,50.7%,100.0%,43.6%,73.1%,22.2%,30.0%,75.7%,0.0%,0.0%,0.0%,0.0%,0.0%,0.0%,0.0%,1.5%,6.3%,22.2%,11.8%,58.2%,0.0%
313,Krems (Land),54.0%,74.6%,0.0%,45.6%,58.0%,0.0%,0.0%,100.0%,46.7%,78.8%,56.3%,45.4%,100.0%,100.0%,0.0%,0.0%,0.0%,0.0%,0.0%,0.0%,0.0%,77.3%,44.6%,60.1%,33.1%,0.0%,18.9%,59.6%,62.1%,48.5%,34.7%,55.0%,100.0%,20.6%,100.0%,0.0%,0.0%,0.0%,0.0%,0.0%,0.0%,0.0%,0.0%,0.0%,0.0%,0.0%,0.0%,0.0%,0.0%,11.9%,0.0%,48.2%,40.0%,0.0%,0.0%
314,Lilienfeld,60.0%,46.0%,39.9%,66.2%,0.0%,0.0%,0.0%,100.0%,34.1%,90.7%,36.5%,0.0%,0.0%,0.0%,58.8%,28.7%,56.0%,27.1%,0.0%,0.0%,100.0%,94.8%,73.8%,72.7%,72.5%,41.1%,49.1%,17.6%,0.0%,0.0%,0.0%,0.0%,0.0%,0.0%,0.0%,0.0%,0.0%,0.0%,0.0%,0.0%,0.0%,0.0%,0.0%,0.0%,0.0%,0.0%,0.0%,0.0%,0.0%,10.3%,15.7%,74.1%,0.0%,0.0%,0.0%
315,Melk,63.9%,0.0%,66.5%,62.1%,63.9%,0.0%,0.0%,0.0%,0.0%,0.0%,0.0%,0.0%,0.0%,0.0%,99.6%,66.9%,81.5%,67.8%,0.0%,23.0%,84.6%,70.1%,72.6%,71.7%,65.3%,69.3%,40.3%,23.9%,100.0%,56.9%,61.5%,67.3%,51.2%,26.4%,48.8%,0.0%,0.0%,0.0%,0.0%,0.0%,0.0%,0.0%,0.0%,0.0%,0.0%,0.0%,0.0%,0.0%,0.0%,0.0%,28.6%,39.4%,32.0%,0.0%,0.0%
316,Mistelbach,58.2%,55.9%,66.5%,63.7%,42.3%,79.2%,0.0%,74.4%,71.3%,55.7%,37.6%,30.5%,54.9%,59.6%,76.3%,88.1%,62.2%,68.5%,58.9%,20.4%,70.6%,64.0%,100.0%,100.0%,38.5%,0.0%,31.8%,100.0%,37.7%,63.1%,29.2%,37.8%,15.8%,17.6%,100.0%,100.0%,65.9%,51.7%,95.3%,52.0%,72.9%,100.0%,0.0%,0.0%,0.0%,0.0%,0.0%,0.0%,0.0%,16.4%,15.8%,5.4%,38.8%,23.7%,0.0%
317,Mödling,49.6%,58.2%,0.0%,79.9%,45.5%,44.6%,0.0%,69.5%,56.8%,33.3%,54.2%,0.0%,100.0%,100.0%,0.0%,0.0%,0.0%,0.0%,0.0%,0.0%,0.0%,96.8%,64.9%,85.6%,90.6%,91.4%,59.8%,47.6%,39.6%,58.3%,42.4%,51.5%,52.4%,22.1%,47.3%,49.4%,64.0%,40.9%,40.7%,31.6%,20.6%,56.3%,0.0%,0.0%,0.0%,0.0%,0.0%,0.0%,0.0%,1.4%,0.0%,12.6%,39.4%,46.6%,0.0%
318,Neunkirchen,61.0%,67.9%,63.9%,50.0%,62.3%,60.8%,0.0%,85.1%,63.3%,72.3%,71.0%,100.0%,0.0%,63.3%,100.0%,23.8%,71.8%,100.0%,38.1%,28.8%,28.8%,46.9%,93.2%,26.6%,53.1%,0.0%,20.0%,100.0%,72.1%,27.9%,50.9%,82.5%,49.8%,45.7%,100.0%,73.1%,76.9%,55.2%,78.9%,54.4%,41.7%,10.1%,0.0%,0.0%,0.0%,0.0%,0.0%,0.0%,0.0%,3.5%,12.7%,5.8%,14.0%,64.1%,0.0%
319,Sankt Pölten (Land),57.1%,46.9%,86.9%,61.7%,47.9%,0.0%,0.0%,98.4%,34.8%,58.6%,40.3%,0.0%,51.3%,0.0%,97.2%,84.8%,85.1%,92.4%,67.0%,68.1%,100.0%,78.0%,60.9%,65.9%,69.0%,17.6%,54.3%,61.6%,45.0%,79.8%,40.2%,43.6%,28.1%,21.7%,72.0%,0.0%,0.0%,0.0%,0.0%,0.0%,0.0%,0.0%,0.0%,0.0%,0.0%,0.0%,0.0%,0.0%,0.0%,2.8%,12.3%,32.3%,52.6%,0.0%,0.0%
320,Scheibbs,65.2%,56.1%,80.0%,79.6%,46.6%,0.0%,0.0%,88.8%,51.5%,65.3%,54.2%,0.0%,0.0%,100.0%,100.0%,59.3%,98.5%,67.3%,63.1%,100.0%,65.9%,85.0%,100.0%,70.9%,70.5%,57.4%,71.1%,100.0%,55.3%,53.6%,43.1%,45.1%,0.0%,20.0%,100.0%,0.0%,0.0%,0.0%,0.0%,0.0%,0.0%,0.0%,0.0%,0.0%,0.0%,0.0%,0.0%,0.0%,0.0%,5.5%,25.7%,28.8%,40.0%,0.0%,0.0%
321,Tulln,54.6%,44.2%,71.6%,46.4%,67.2%,51.3%,0.0%,100.0%,25.5%,100.0%,27.1%,0.0%,0.0%,0.0%,86.0%,51.4%,82.2%,75.0%,46.7%,46.7%,100.0%,50.3%,61.2%,47.9%,58.0%,22.6%,16.9%,44.7%,81.8%,70.5%,69.9%,68.1%,19.7%,51.9%,90.3%,37.0%,98.4%,29.4%,64.8%,26.7%,24.9%,66.4%,0.0%,0.0%,0.0%,0.0%,0.0%,0.0%,0.0%,1.8%,5.7%,17.8%,19.6%,55.2%,0.0%
322,Waidhofen an der Thaya,65.2%,33.4%,0.0%,71.0%,74.1%,0.0%,0.0%,59.2%,15.4%,46.5%,61.6%,0.0%,0.0%,0.0%,0.0%,0.0%,0.0%,0.0%,0.0%,0.0%,0.0%,100.0%,26.4%,100.0%,57.7%,100.0%,30.6%,74.4%,100.0%,52.7%,98.7%,48.8%,100.0%,51.7%,64.3%,0.0%,0.0%,0.0%,0.0%,0.0%,0.0%,0.0%,0.0%,0.0%,0.0%,0.0%,0.0%,0.0%,0.0%,18.7%,0.0%,40.0%,41.3%,0.0%,0.0%
323,Wiener Neustadt (Land),51.7%,0.0%,53.0%,51.4%,0.0%,0.0%,0.0%,0.0%,0.0%,0.0%,0.0%,0.0%,0.0%,0.0%,80.5%,35.0%,42.1%,100.0%,0.0%,0.0%,53.2%,72.3%,38.0%,62.3%,55.2%,13.5%,34.7%,60.8%,0.0%,0.0%,0.0%,0.0%,0.0%,0.0%,0.0%,0.0%,0.0%,0.0%,0.0%,0.0%,0.0%,0.0%,0.0%,0.0%,0.0%,0.0%,0.0%,0.0%,0.0%,0.0%,16.4%,83.6%,0.0%,0.0%,0.0%
325,Zwettl,65.1%,66.5%,75.8%,57.2%,0.0%,62.0%,0.0%,96.3%,45.9%,87.2%,84.4%,25.7%,30.6%,47.4%,100.0%,67.3%,100.0%,55.4%,66.3%,29.7%,100.0%,84.3%,29.9%,83.3%,58.8%,100.0%,16.6%,0.0%,0.0%,0.0%,0.0%,0.0%,0.0%,0.0%,0.0%,79.2%,81.7%,89.5%,37.0%,81.9%,22.7%,26.7%,0.0%,0.0%,0.0%,0.0%,0.0%,0.0%,0.0%,26.9%,19.3%,15.7%,0.0%,38.1%,0.0%
401,Linz (Stadt),75.9%,0.0%,0.0%,0.0%,0.0%,0.0%,75.9%,0.0%,0.0%,0.0%,0.0%,0.0%,0.0%,0.0%,0.0%,0.0%,0.0%,0.0%,0.0%,0.0%,0.0%,0.0%,0.0%,0.0%,0.0%,0.0%,0.0%,0.0%,0.0%,0.0%,0.0%,0.0%,0.0%,0.0%,0.0%,0.0%,0.0%,0.0%,0.0%,0.0%,0.0%,0.0%,91.0%,82.3%,66.4%,99.6%,40.2%,57.8%,56.7%,0.0%,0.0%,0.0%,0.0%,0.0%,100.0%
402,Steyr (Stadt),67.2%,0.0%,0.0%,0.0%,0.0%,67.2%,0.0%,0.0%,0.0%,0.0%,0.0%,0.0%,0.0%,0.0%,0.0%,0.0%,0.0%,0.0%,0.0%,0.0%,0.0%,0.0%,0.0%,0.0%,0.0%,0.0%,0.0%,0.0%,0.0%,0.0%,0.0%,0.0%,0.0%,0.0%,0.0%,45.6%,100.0%,62.6%,100.0%,41.5%,69.5%,25.9%,0.0%,0.0%,0.0%,0.0%,0.0%,0.0%,0.0%,0.0%,0.0%,0.0%,0.0%,100.0%,0.0%
403,Wels (Stadt),69.2%,0.0%,0.0%,0.0%,0.0%,0.0%,69.2%,0.0%,0.0%,0.0%,0.0%,0.0%,0.0%,0.0%,0.0%,0.0%,0.0%,0.0%,0.0%,0.0%,0.0%,0.0%,0.0%,0.0%,0.0%,0.0%,0.0%,0.0%,0.0%,0.0%,0.0%,0.0%,0.0%,0.0%,0.0%,0.0%,0.0%,0.0%,0.0%,0.0%,0.0%,0.0%,80.4%,91.2%,41.4%,79.2%,100.0%,38.4%,35.7%,0.0%,0.0%,0.0%,0.0%,0.0%,100.0%
404,Braunau am Inn,60.9%,65.5%,69.6%,66.2%,73.6%,43.0%,0.0%,89.0%,86.0%,56.1%,78.0%,0.0%,47.7%,59.7%,92.7%,79.1%,56.0%,65.6%,20.9%,83.7%,72.2%,73.4%,68.0%,81.0%,63.3%,37.8%,38.2%,88.9%,100.0%,37.3%,99.4%,52.5%,96.2%,29.4%,100.0%,43.0%,57.6%,33.6%,72.7%,17.8%,22.2%,22.2%,0.0%,0.0%,0.0%,0.0%,0.0%,0.0%,0.0%,4.6%,17.4%,38.9%,10.6%,28.6%,0.0%
405,Eferding,78.8%,70.2%,81.3%,72.3%,83.1%,0.0%,0.0%,100.0%,85.0%,62.7%,40.1%,0.0%,100.0%,100.0%,100.0%,98.5%,87.4%,81.3%,0.0%,100.0%,71.9%,77.1%,99.5%,58.3%,71.9%,0.0%,88.5%,100.0%,97.0%,100.0%,100.0%,75.8%,0.0%,85.0%,100.0%,0.0%,0.0%,0.0%,0.0%,0.0%,0.0%,0.0%,0.0%,0.0%,0.0%,0.0%,0.0%,0.0%,0.0%,5.3%,25.0%,29.0%,40.7%,0.0%,0.0%
406,Freistadt,64.3%,69.4%,72.0%,63.2%,55.4%,0.0%,0.0%,90.7%,79.1%,72.6%,75.9%,40.3%,46.8%,45.9%,100.0%,75.6%,83.4%,69.2%,0.0%,85.7%,57.8%,83.9%,73.1%,56.5%,68.8%,20.7%,44.9%,66.5%,47.4%,94.5%,61.7%,63.7%,0.0%,37.2%,59.9%,0.0%,0.0%,0.0%,0.0%,0.0%,0.0%,0.0%,0.0%,0.0%,0.0%,0.0%,0.0%,0.0%,0.0%,14.3%,21.3%,43.8%,20.6%,0.0%,0.0%
407,Gmunden,64.5%,33.9%,92.9%,75.9%,57.9%,67.1%,0.0%,87.1%,20.7%,53.3%,27.1%,0.0%,0.0%,0.0%,100.0%,100.0%,94.8%,93.1%,51.1%,100.0%,100.0%,90.7%,72.8%,91.9%,80.3%,27.0%,63.1%,80.2%,54.9%,81.7%,53.0%,56.0%,39.0%,37.7%,78.5%,59.3%,100.0%,42.4%,85.9%,11.0%,55.5%,100.0%,0.0%,0.0%,0.0%,0.0%,0.0%,0.0%,0.0%,0.9%,4.8%,12.2%,49.9%,32.2%,0.0%
408,Grieskirchen,72.7%,82.0%,68.4%,63.0%,90.4%,0.0%,0.0%,95.9%,81.3%,85.0%,70.0%,72.7%,100.0%,65.9%,90.4%,74.3%,77.9%,71.0%,17.5%,49.7%,66.2%,82.1%,81.4%,56.4%,69.7%,0.0%,67.2%,52.3%,100.0%,64.1%,100.0%,78.8%,100.0%,100.0%,100.0%,0.0%,0.0%,0.0%,0.0%,0.0%,0.0%,0.0%,0.0%,0.0%,0.0%,0.0%,0.0%,0.0%,0.0%,15.2%,43.1%,25.4%,16.3%,0.0%,0.0%
409,Kirchdorf an der Krems,54.3%,39.1%,82.0%,46.0%,48.6%,0.0%,0.0%,68.0%,100.0%,40.0%,22.4%,0.0%,0.0%,0.0%,100.0%,74.3%,77.2%,90.5%,27.8%,100.0%,84.1%,77.4%,48.3%,57.1%,40.6%,0.0%,20.5%,45.6%,63.9%,51.8%,45.9%,50.7%,0.0%,37.4%,72.6%,0.0%,0.0%,0.0%,0.0%,0.0%,0.0%,0.0%,0.0%,0.0%,0.0%,0.0%,0.0%,0.0%,0.0%,1.6%,19.7%,28.1%,50.6%,0.0%,0.0%
410,Linz-Land,68.0%,0.0%,90.4%,95.5%,54.5%,66.4%,0.0%,0.0%,0.0%,0.0%,0.0%,0.0%,0.0%,0.0%,100.0%,90.8%,99.0%,93.3%,48.4%,100.0%,84.6%,100.0%,94.3%,100.0%,92.0%,96.4%,91.0%,92.6%,69.1%,77.7%,55.1%,49.7%,11.4%,35.2%,61.1%,47.3%,91.2%,54.1%,76.9%,52.3%,45.0%,100.0%,0.0%,0.0%,0.0%,0.0%,0.0%,0.0%,0.0%,0.0%,6.5%,8.6%,20.9%,63.9%,0.0%
411,Perg,66.6%,49.0%,79.0%,58.1%,75.0%,0.0%,0.0%,91.8%,50.6%,65.1%,37.3%,0.0%,36.2%,22.2%,98.4%,85.4%,78.9%,73.5%,0.0%,100.0%,100.0%,73.1%,69.4%,51.6%,70.5%,0.0%,35.4%,76.7%,80.7%,97.5%,64.4%,84.8%,21.9%,63.4%,91.3%,0.0%,0.0%,0.0%,0.0%,0.0%,0.0%,0.0%,0.0%,0.0%,0.0%,0.0%,0.0%,0.0%,0.0%,7.4%,14.9%,41.6%,36.1%,0.0%,0.0%
412,Ried im Innkreis,71.4%,60.9%,68.7%,48.3%,0.0%,90.3%,0.0%,94.7%,81.0%,59.8%,49.3%,0.0%,60.5%,49.3%,85.5%,99.0%,56.4%,56.1%,35.1%,67.7%,67.7%,55.7%,51.1%,68.1%,41.7%,47.0%,15.8%,47.0%,0.0%,0.0%,0.0%,0.0%,0.0%,0.0%,0.0%,100.0%,95.2%,99.1%,76.3%,76.4%,82.1%,100.0%,0.0%,0.0%,0.0%,0.0%,0.0%,0.0%,0.0%,18.2%,22.3%,20.8%,0.0%,38.7%,0.0%
413,Rohrbach,75.8%,64.3%,76.5%,81.5%,81.0%,0.0%,0.0%,94.0%,55.7%,59.9%,63.3%,12.6%,51.3%,90.5%,95.9%,76.3%,83.5%,73.7%,27.1%,74.7%,84.5%,92.4%,88.3%,85.5%,89.3%,26.6%,68.7%,95.8%,100.0%,87.1%,100.0%,60.9%,58.0%,49.9%,100.0%,0.0%,0.0%,0.0%,0.0%,0.0%,0.0%,0.0%,0.0%,0.0%,0.0%,0.0%,0.0%,0.0%,0.0%,19.7%,44.3%,23.3%,12.7%,0.0%,0.0%
414,Schärding,65.5%,69.3%,62.5%,51.4%,74.8%,0.0%,0.0%,86.2%,65.2%,67.7%,92.5%,0.0%,81.9%,54.3%,95.2%,56.9%,69.9%,69.2%,0.0%,51.8%,54.2%,92.7%,42.8%,73.6%,40.2%,53.0%,21.1%,0.0%,92.8%,74.3%,98.2%,59.2%,49.4%,44.6%,91.6%,0.0%,0.0%,0.0%,0.0%,0.0%,0.0%,0.0%,0.0%,0.0%,0.0%,0.0%,0.0%,0.0%,0.0%,15.6%,37.3%,16.4%,30.7%,0.0%,0.0%
415,Steyr-Land,73.3%,56.6%,69.8%,77.6%,73.7%,0.0%,0.0%,80.8%,68.1%,49.2%,47.6%,0.0%,49.8%,83.3%,97.1%,78.2%,72.6%,71.1%,19.7%,49.7%,66.2%,91.0%,80.9%,89.2%,69.8%,36.7%,62.6%,100.0%,78.4%,100.0%,57.1%,89.8%,0.0%,65.4%,100.0%,0.0%,0.0%,0.0%,0.0%,0.0%,0.0%,0.0%,0.0%,0.0%,0.0%,0.0%,0.0%,0.0%,0.0%,4.8%,22.2%,31.8%,41.1%,0.0%,0.0%
416,Urfahr-Umgebung,73.5%,77.3%,77.1%,76.5%,64.6%,0.0%,0.0%,100.0%,86.3%,67.7%,63.7%,24.4%,100.0%,90.6%,100.0%,60.4%,88.8%,80.6%,25.4%,72.8%,88.3%,92.3%,89.5%,71.8%,91.6%,43.2%,59.4%,52.1%,71.9%,88.8%,48.7%,60.4%,48.0%,58.4%,68.4%,0.0%,0.0%,0.0%,0.0%,0.0%,0.0%,0.0%,0.0%,0.0%,0.0%,0.0%,0.0%,0.0%,0.0%,5.4%,12.8%,55.8%,26.0%,0.0%,0.0%
417,Vöcklabruck,69.9%,60.1%,54.5%,72.9%,63.8%,80.8%,0.0%,79.5%,74.6%,46.6%,59.5%,0.0%,61.4%,79.6%,89.9%,49.3%,50.9%,44.0%,0.0%,27.1%,100.0%,88.2%,76.9%,76.1%,81.0%,42.3%,39.7%,79.4%,58.3%,91.5%,63.6%,69.1%,42.2%,36.9%,71.2%,84.3%,83.0%,66.0%,100.0%,48.8%,66.7%,100.0%,0.0%,0.0%,0.0%,0.0%,0.0%,0.0%,0.0%,6.6%,6.4%,51.5%,22.1%,13.5%,0.0%
418,Wels-Land,64.4%,79.5%,54.4%,71.7%,72.6%,52.5%,0.0%,100.0%,100.0%,80.0%,62.5%,0.0%,100.0%,100.0%,89.3%,64.2%,43.5%,58.0%,0.0%,62.9%,24.7%,93.8%,65.5%,79.5%,65.3%,64.6%,40.6%,76.2%,64.3%,100.0%,77.7%,58.8%,81.7%,31.7%,100.0%,72.6%,69.5%,41.4%,53.7%,67.8%,30.1%,8.3%,0.0%,0.0%,0.0%,0.0%,0.0%,0.0%,0.0%,2.8%,13.7%,32.1%,23.2%,28.1%,0.0%
501,Salzburg (Stadt),86.4%,0.0%,0.0%,0.0%,0.0%,0.0%,86.4%,0.0%,0.0%,0.0%,0.0%,0.0%,0.0%,0.0%,0.0%,0.0%,0.0%,0.0%,0.0%,0.0%,0.0%,0.0%,0.0%,0.0%,0.0%,0.0%,0.0%,0.0%,0.0%,0.0%,0.0%,0.0%,0.0%,0.0%,0.0%,0.0%,0.0%,0.0%,0.0%,0.0%,0.0%,0.0%,93.0%,100.0%,100.0%,90.8%,100.0%,59.3%,37.0%,0.0%,0.0%,0.0%,0.0%,0.0%,100.0%
502,Hallein,69.4%,0.0%,86.2%,78.2%,70.1%,57.2%,0.0%,0.0%,0.0%,0.0%,0.0%,0.0%,0.0%,0.0%,100.0%,100.0%,84.2%,75.7%,36.9%,100.0%,97.5%,89.4%,97.0%,64.5%,91.5%,17.9%,60.2%,100.0%,79.3%,87.1%,77.0%,72.8%,23.1%,27.6%,100.0%,61.0%,71.4%,57.8%,69.5%,14.3%,32.3%,70.3%,0.0%,0.0%,0.0%,0.0%,0.0%,0.0%,0.0%,0.0%,10.5%,29.5%,22.9%,37.1%,0.0%
503,Salzburg-Umgebung,75.6%,83.2%,76.3%,82.1%,71.5%,67.0%,0.0%,97.1%,84.7%,98.6%,96.9%,20.7%,76.5%,71.5%,100.0%,59.0%,100.0%,92.7%,0.0%,38.8%,100.0%,88.3%,86.1%,87.8%,90.1%,41.8%,66.1%,95.4%,70.9%,95.0%,59.4%,70.1%,53.9%,47.2%,100.0%,60.0%,96.2%,72.8%,70.5%,25.3%,49.3%,81.1%,0.0%,0.0%,0.0%,0.0%,0.0%,0.0%,0.0%,3.8%,2.8%,40.4%,35.9%,17.0%,0.0%
504,Sankt Johann im Pongau,67.2%,49.6%,67.6%,69.2%,53.0%,70.9%,0.0%,76.6%,89.1%,44.6%,54.2%,0.0%,0.0%,34.4%,99.4%,49.7%,73.1%,70.3%,0.0%,100.0%,52.7%,85.0%,64.6%,72.0%,79.1%,44.4%,28.5%,86.1%,41.9%,71.8%,36.7%,55.0%,43.4%,30.2%,100.0%,64.2%,98.1%,63.2%,54.1%,93.1%,37.4%,100.0%,0.0%,0.0%,0.0%,0.0%,0.0%,0.0%,0.0%,3.7%,6.6%,43.7%,11.2%,34.8%,0.0%
505,Tamsweg,83.4%,85.1%,90.2%,81.4%,80.2%,0.0%,0.0%,79.9%,93.3%,91.8%,87.4%,59.7%,81.7%,97.5%,100.0%,100.0%,100.0%,100.0%,100.0%,100.0%,2.0%,79.3%,100.0%,83.9%,100.0%,0.0%,79.2%,100.0%,89.7%,100.0%,79.5%,75.0%,53.0%,50.0%,100.0%,0.0%,0.0%,0.0%,0.0%,0.0%,0.0%,0.0%,0.0%,0.0%,0.0%,0.0%,0.0%,0.0%,0.0%,32.5%,13.7%,20.8%,32.9%,0.0%,0.0%
506,Zell am See,62.5%,60.8%,69.2%,59.1%,55.6%,72.9%,0.0%,71.3%,68.7%,61.3%,74.2%,0.0%,64.5%,57.3%,82.0%,66.7%,59.1%,70.5%,24.9%,100.0%,73.7%,68.2%,62.2%,68.5%,60.3%,33.9%,32.6%,71.0%,53.0%,83.1%,48.5%,72.9%,19.8%,22.0%,64.5%,75.7%,100.0%,38.2%,85.9%,54.3%,44.3%,100.0%,0.0%,0.0%,0.0%,0.0%,0.0%,0.0%,0.0%,6.9%,10.0%,42.5%,19.4%,21.2%,0.0%
601,Graz (Stadt),78.8%,0.0%,0.0%,0.0%,0.0%,0.0%,78.8%,0.0%,0.0%,0.0%,0.0%,0.0%,0.0%,0.0%,0.0%,0.0%,0.0%,0.0%,0.0%,0.0%,0.0%,0.0%,0.0%,0.0%,0.0%,0.0%,0.0%,0.0%,0.0%,0.0%,0.0%,0.0%,0.0%,0.0%,0.0%,0.0%,0.0%,0.0%,0.0%,0.0%,0.0%,0.0%,97.9%,100.0%,37.0%,100.0%,68.7%,66.9%,50.7%,0.0%,0.0%,0.0%,0.0%,0.0%,100.0%
603,Deutschlandsberg,54.1%,0.0%,0.0%,69.5%,38.5%,43.6%,0.0%,0.0%,0.0%,0.0%,0.0%,0.0%,0.0%,0.0%,0.0%,0.0%,0.0%,0.0%,0.0%,0.0%,0.0%,83.3%,57.2%,80.8%,76.4%,58.8%,42.2%,67.9%,43.3%,60.7%,33.3%,50.9%,0.0%,22.4%,33.6%,59.2%,32.4%,37.2%,50.5%,25.8%,9.3%,76.9%,0.0%,0.0%,0.0%,0.0%,0.0%,0.0%,0.0%,0.0%,0.0%,46.4%,30.4%,23.2%,0.0%
606,Graz-Umgebung,52.3%,26.8%,49.9%,63.7%,57.4%,28.6%,0.0%,57.1%,15.0%,40.0%,35.4%,0.0%,0.0%,0.0%,72.9%,29.1%,68.1%,54.4%,35.7%,31.4%,31.4%,75.0%,70.8%,65.4%,75.2%,8.8%,43.9%,79.8%,61.5%,53.9%,53.9%,65.7%,13.6%,44.6%,100.0%,30.8%,46.8%,29.2%,24.1%,0.0%,8.0%,53.9%,0.0%,0.0%,0.0%,0.0%,0.0%,0.0%,0.0%,1.1%,5.9%,31.1%,40.2%,21.8%,0.0%
610,Leibnitz,51.7%,34.5%,58.3%,41.5%,44.7%,61.6%,0.0%,83.9%,41.2%,53.3%,17.7%,0.0%,0.0%,0.0%,89.3%,47.5%,93.8%,45.4%,33.7%,33.7%,33.7%,55.8%,37.0%,44.7%,42.0%,0.0%,24.0%,72.5%,74.0%,53.6%,47.1%,21.9%,0.0%,4.7%,100.0%,95.8%,53.3%,62.1%,80.9%,24.6%,65.0%,0.0%,0.0%,0.0%,0.0%,0.0%,0.0%,0.0%,0.0%,4.0%,18.2%,28.4%,15.0%,34.4%,0.0%
611,Leoben,49.9%,70.6%,41.3%,47.2%,0.0%,49.9%,0.0%,100.0%,50.4%,83.5%,46.4%,56.2%,100.0%,56.2%,70.2%,11.0%,82.4%,39.8%,0.0%,0.0%,52.8%,64.8%,38.7%,83.6%,59.8%,0.0%,24.1%,15.4%,0.0%,0.0%,0.0%,0.0%,0.0%,0.0%,0.0%,50.2%,36.0%,64.7%,88.7%,8.3%,30.7%,31.3%,0.0%,0.0%,0.0%,0.0%,0.0%,0.0%,0.0%,4.6%,7.0%,14.8%,0.0%,73.6%,0.0%
612,Liezen,64.2%,46.1%,64.5%,66.9%,65.2%,0.0%,0.0%,61.1%,51.7%,45.7%,32.5%,34.2%,0.0%,93.8%,87.7%,50.4%,71.0%,66.2%,26.3%,54.9%,74.0%,84.5%,64.9%,92.9%,64.7%,39.2%,28.0%,66.5%,66.0%,78.7%,66.2%,66.8%,35.7%,60.6%,72.3%,0.0%,0.0%,0.0%,0.0%,0.0%,0.0%,0.0%,0.0%,0.0%,0.0%,0.0%,0.0%,0.0%,0.0%,6.6%,23.1%,25.8%,44.4%,0.0%,0.0%
614,Murau,48.8%,41.7%,45.8%,31.9%,69.7%,0.0%,0.0%,55.0%,27.5%,50.7%,44.8%,0.0%,0.0%,100.0%,72.8%,6.6%,52.2%,61.7%,66.1%,34.8%,0.0%,62.2%,6.2%,78.3%,24.0%,0.0%,19.6%,0.0%,100.0%,31.8%,75.2%,78.8%,100.0%,52.8%,26.1%,0.0%,0.0%,0.0%,0.0%,0.0%,0.0%,0.0%,0.0%,0.0%,0.0%,0.0%,0.0%,0.0%,0.0%,7.1%,44.6%,21.8%,26.5%,0.0%,0.0%
616,Voitsberg,70.1%,32.8%,66.5%,65.8%,73.0%,0.0%,0.0%,34.1%,0.0%,40.0%,100.0%,0.0%,0.0%,0.0%,100.0%,59.4%,83.7%,65.2%,29.4%,29.4%,60.7%,61.9%,98.0%,66.6%,83.3%,0.0%,20.5%,100.0%,76.7%,69.4%,70.5%,93.8%,61.4%,53.2%,64.8%,0.0%,0.0%,0.0%,0.0%,0.0%,0.0%,0.0%,0.0%,0.0%,0.0%,0.0%,0.0%,0.0%,0.0%,3.0%,16.0%,9.3%,71.7%,0.0%,0.0%
617,Weiz,75.9%,55.4%,65.8%,65.2%,59.9%,96.7%,0.0%,87.5%,57.3%,68.4%,34.2%,0.0%,60.8%,60.8%,100.0%,66.1%,93.3%,58.0%,34.4%,34.4%,34.4%,62.4%,70.7%,63.6%,71.1%,59.4%,24.5%,100.0%,73.0%,65.4%,73.1%,55.6%,7.4%,27.1%,100.0%,100.0%,100.0%,100.0%,95.3%,89.3%,87.3%,100.0%,0.0%,0.0%,0.0%,0.0%,0.0%,0.0%,0.0%,3.0%,10.2%,32.1%,17.3%,37.4%,0.0%
620,Murtal,59.8%,45.3%,0.0%,51.7%,49.4%,68.6%,0.0%,100.0%,13.2%,40.0%,36.5%,0.0%,0.0%,100.0%,0.0%,0.0%,0.0%,0.0%,0.0%,0.0%,0.0%,83.8%,28.0%,66.6%,75.0%,0.0%,27.8%,30.0%,54.7%,34.8%,47.3%,52.4%,20.0%,37.2%,100.0%,87.6%,72.7%,82.6%,80.0%,26.4%,47.7%,44.3%,0.0%,0.0%,0.0%,0.0%,0.0%,0.0%,0.0%,3.2%,0.0%,7.1%,35.7%,54.0%,0.0%
621,Bruck-Mürzzuschlag,54.7%,0.0%,63.3%,41.8%,67.1%,50.4%,0.0%,0.0%,0.0%,0.0%,0.0%,0.0%,0.0%,0.0%,100.0%,33.6%,71.5%,80.0%,0.0%,64.2%,51.1%,48.5%,42.4%,67.4%,41.2%,0.0%,15.7%,57.8%,66.9%,91.1%,72.1%,61.9%,51.3%,32.6%,84.5%,33.0%,93.3%,35.6%,69.8%,7.7%,31.5%,65.3%,0.0%,0.0%,0.0%,0.0%,0.0%,0.0%,0.0%,0.0%,7.0%,13.5%,27.5%,52.0%,0.0%
622,Hartberg-Fürstenfeld,63.9%,50.5%,67.5%,55.8%,73.5%,0.0%,0.0%,67.2%,50.8%,66.9%,62.6%,34.6%,0.0%,34.6%,93.2%,38.0%,76.0%,88.3%,0.0%,100.0%,41.5%,72.8%,59.9%,66.9%,52.6%,15.7%,28.1%,73.7%,73.9%,65.8%,68.3%,79.4%,85.3%,41.5%,100.0%,0.0%,0.0%,0.0%,0.0%,0.0%,0.0%,0.0%,0.0%,0.0%,0.0%,0.0%,0.0%,0.0%,0.0%,8.3%,7.4%,40.9%,43.4%,0.0%,0.0%
623,Südoststeiermark,56.8%,49.9%,52.4%,60.7%,44.7%,60.5%,0.0%,100.0%,30.2%,100.0%,27.1%,0.0%,0.0%,50.0%,90.7%,21.8%,96.0%,33.0%,0.0%,49.8%,49.8%,70.0%,59.8%,73.3%,67.2%,39.2%,38.0%,56.3%,35.1%,70.3%,32.9%,49.2%,47.4%,18.4%,57.9%,59.3%,53.5%,45.8%,74.3%,90.0%,28.8%,69.6%,0.0%,0.0%,0.0%,0.0%,0.0%,0.0%,0.0%,2.0%,5.2%,51.5%,20.1%,21.2%,0.0%
701,Innsbruck-Stadt,72.6%,0.0%,0.0%,0.0%,0.0%,0.0%,72.6%,0.0%,0.0%,0.0%,0.0%,0.0%,0.0%,0.0%,0.0%,0.0%,0.0%,0.0%,0.0%,0.0%,0.0%,0.0%,0.0%,0.0%,0.0%,0.0%,0.0%,0.0%,0.0%,0.0%,0.0%,0.0%,0.0%,0.0%,0.0%,0.0%,0.0%,0.0%,0.0%,0.0%,0.0%,0.0%,78.1%,100.0%,26.7%,100.0%,34.4%,45.7%,100.0%,0.0%,0.0%,0.0%,0.0%,0.0%,100.0%
702,Imst,71.3%,68.1%,88.2%,70.2%,0.0%,65.4%,0.0%,99.2%,45.9%,79.9%,70.0%,27.0%,87.7%,39.3%,100.0%,63.3%,94.6%,89.1%,100.0%,66.5%,100.0%,80.6%,74.9%,81.0%,73.3%,24.7%,48.5%,87.3%,0.0%,0.0%,0.0%,0.0%,0.0%,0.0%,0.0%,54.2%,100.0%,55.0%,62.2%,28.9%,60.3%,100.0%,0.0%,0.0%,0.0%,0.0%,0.0%,0.0%,0.0%,10.2%,13.3%,53.6%,0.0%,22.9%,0.0%
703,Innsbruck-Land,66.4%,68.3%,78.2%,57.5%,67.9%,71.8%,0.0%,85.4%,75.5%,74.7%,63.6%,24.9%,56.6%,78.1%,92.7%,83.0%,75.5%,80.7%,20.0%,77.2%,100.0%,65.5%,73.2%,65.9%,54.1%,14.4%,33.0%,79.3%,71.0%,91.9%,54.8%,76.3%,40.3%,46.1%,77.9%,71.5%,86.2%,55.9%,83.1%,42.5%,52.9%,100.0%,0.0%,0.0%,0.0%,0.0%,0.0%,0.0%,0.0%,10.0%,7.3%,29.8%,31.9%,21.0%,0.0%
704,Kitzbühel,58.2%,0.0%,66.5%,65.7%,51.7%,0.0%,0.0%,0.0%,0.0%,0.0%,0.0%,0.0%,0.0%,0.0%,87.2%,39.6%,76.5%,72.5%,34.7%,100.0%,36.5%,59.8%,94.0%,92.4%,62.5%,27.3%,46.2%,59.2%,55.3%,60.6%,65.2%,58.8%,12.8%,30.6%,56.3%,0.0%,0.0%,0.0%,0.0%,0.0%,0.0%,0.0%,0.0%,0.0%,0.0%,0.0%,0.0%,0.0%,0.0%,0.0%,12.5%,33.5%,54.0%,0.0%,0.0%
705,Kufstein,48.5%,46.0%,91.7%,57.4%,36.8%,35.4%,0.0%,66.7%,30.2%,73.2%,42.6%,28.6%,28.6%,28.6%,100.0%,74.3%,100.0%,92.2%,71.2%,100.0%,100.0%,62.8%,60.5%,71.0%,54.7%,22.5%,34.0%,85.3%,53.8%,31.0%,49.6%,33.2%,0.0%,23.6%,49.1%,39.1%,47.0%,24.3%,45.7%,9.2%,20.5%,47.2%,0.0%,0.0%,0.0%,0.0%,0.0%,0.0%,0.0%,1.6%,6.1%,42.3%,12.9%,37.1%,0.0%
706,Landeck,73.9%,77.8%,83.4%,67.6%,74.8%,0.0%,0.0%,88.4%,71.7%,77.1%,67.0%,81.5%,81.5%,81.5%,97.0%,37.9%,90.7%,73.7%,100.0%,100.0%,100.0%,90.1%,50.4%,86.8%,48.8%,70.1%,52.3%,70.1%,82.1%,43.8%,90.0%,77.8%,54.5%,73.1%,100.0%,0.0%,0.0%,0.0%,0.0%,0.0%,0.0%,0.0%,0.0%,0.0%,0.0%,0.0%,0.0%,0.0%,0.0%,11.6%,17.0%,37.5%,33.9%,0.0%,0.0%
707,Lienz,80.0%,61.3%,87.0%,83.6%,0.0%,92.5%,0.0%,78.7%,59.2%,68.5%,57.2%,37.2%,48.9%,64.1%,84.8%,82.2%,90.4%,84.8%,72.3%,100.0%,100.0%,92.3%,89.5%,100.0%,75.0%,91.6%,50.9%,75.0%,0.0%,0.0%,0.0%,0.0%,0.0%,0.0%,0.0%,81.2%,100.0%,100.0%,100.0%,100.0%,62.8%,100.0%,0.0%,0.0%,0.0%,0.0%,0.0%,0.0%,0.0%,33.5%,23.5%,9.2%,0.0%,33.7%,0.0%
708,Reutte,80.2%,70.5%,91.2%,82.1%,86.7%,0.0%,0.0%,94.9%,61.0%,82.7%,63.3%,19.1%,83.3%,70.7%,100.0%,45.3%,100.0%,97.1%,100.0%,100.0%,100.0%,96.1%,62.0%,100.0%,62.5%,100.0%,60.9%,100.0%,60.1%,96.8%,100.0%,92.5%,100.0%,66.5%,100.0%,0.0%,0.0%,0.0%,0.0%,0.0%,0.0%,0.0%,0.0%,0.0%,0.0%,0.0%,0.0%,0.0%,0.0%,38.2%,8.8%,14.9%,38.1%,0.0%,0.0%
709,Schwaz,71.5%,77.6%,61.9%,62.1%,86.7%,75.5%,0.0%,97.9%,70.8%,76.1%,72.4%,100.0%,57.3%,57.3%,96.3%,53.9%,75.9%,66.7%,0.0%,42.8%,55.6%,97.9%,63.8%,72.3%,62.1%,0.0%,25.7%,71.1%,79.3%,100.0%,98.7%,88.8%,49.5%,83.4%,100.0%,100.0%,83.6%,91.4%,85.1%,44.1%,55.4%,22.7%,0.0%,0.0%,0.0%,0.0%,0.0%,0.0%,0.0%,4.6%,24.1%,24.7%,21.9%,24.6%,0.0%
801,Bludenz,73.2%,78.7%,86.0%,78.2%,64.1%,64.6%,0.0%,94.8%,80.3%,85.4%,82.0%,31.5%,74.6%,78.3%,100.0%,89.1%,95.1%,100.0%,0.0%,100.0%,84.0%,87.3%,100.0%,78.7%,96.6%,24.5%,66.9%,54.8%,66.8%,100.0%,53.0%,63.8%,0.0%,50.3%,100.0%,59.0%,100.0%,69.4%,88.0%,41.7%,43.4%,13.3%,0.0%,0.0%,0.0%,0.0%,0.0%,0.0%,0.0%,9.0%,13.2%,33.1%,13.6%,31.1%,0.0%
802,Bregenz,80.4%,82.6%,85.5%,67.8%,83.8%,81.2%,0.0%,95.5%,95.8%,88.1%,84.1%,13.5%,91.5%,85.6%,100.0%,86.2%,92.0%,96.2%,11.0%,100.0%,84.8%,83.9%,69.6%,79.2%,75.3%,15.4%,46.2%,74.8%,87.0%,95.0%,94.1%,82.1%,63.3%,60.1%,92.6%,89.1%,100.0%,71.5%,85.7%,52.9%,81.5%,70.3%,0.0%,0.0%,0.0%,0.0%,0.0%,0.0%,0.0%,9.2%,12.2%,15.2%,22.1%,41.4%,0.0%
803,Dornbirn,67.6%,0.0%,0.0%,0.0%,0.0%,67.6%,0.0%,0.0%,0.0%,0.0%,0.0%,0.0%,0.0%,0.0%,0.0%,0.0%,0.0%,0.0%,0.0%,0.0%,0.0%,0.0%,0.0%,0.0%,0.0%,0.0%,0.0%,0.0%,0.0%,0.0%,0.0%,0.0%,0.0%,0.0%,0.0%,58.5%,97.9%,36.5%,88.2%,38.6%,42.5%,100.0%,0.0%,0.0%,0.0%,0.0%,0.0%,0.0%,0.0%,0.0%,0.0%,0.0%,0.0%,100.0%,0.0%
804,Feldkirch,80.4%,84.1%,78.3%,95.7%,75.2%,75.3%,0.0%,94.5%,100.0%,61.4%,76.6%,56.0%,100.0%,100.0%,100.0%,62.4%,100.0%,78.0%,0.0%,100.0%,84.0%,100.0%,93.1%,99.5%,95.9%,92.9%,91.8%,92.0%,79.7%,96.9%,62.7%,86.2%,23.1%,66.8%,91.1%,80.9%,97.0%,67.5%,86.3%,42.6%,43.0%,86.7%,0.0%,0.0%,0.0%,0.0%,0.0%,0.0%,0.0%,1.5%,4.7%,23.6%,13.2%,57.1%,0.0%
900,Wien,68.2%,0.0%,0.0%,0.0%,0.0%,0.0%,68.2%,0.0%,0.0%,0.0%,0.0%,0.0%,0.0%,0.0%,0.0%,0.0%,0.0%,0.0%,0.0%,0.0%,0.0%,0.0%,0.0%,0.0%,0.0%,0.0%,0.0%,0.0%,0.0%,0.0%,0.0%,0.0%,0.0%,0.0%,0.0%,0.0%,0.0%,0.0%,0.0%,0.0%,0.0%,0.0%,68.9%,100.0%,39.0%,100.0%,32.1%,41.4%,61.7%,0.0%,0.0%,0.0%,0.0%,0.0%,100.0%
